…
leverage <- tq_get(x = c("DGS10","IR3TIB01USM156N"), get = "economic.data", from = "1990-02-01") %>%
  rename(daily.returns = price) %>%
  group_by(symbol) %>%
  mutate (daily.returns = (daily.returns/(-36600)))

riskfree <- tq_get(x = c("DGS10"), get = "economic.data", from = "1990-02-01") %>%
  rename(daily.returns = price) %>%
  group_by(symbol) %>%
  mutate (daily.returns = (daily.returns/100+1)^(1/365))

riskfree

## # A tibble: 8,012 x 3
## # Groups:   symbol [1]
##    symbol date       daily.returns
##    <chr>  <date>             <dbl>
##  1 DGS10  1990-02-01          1.00
##  2 DGS10  1990-02-02          1.00
##  3 DGS10  1990-02-05          1.00
##  4 DGS10  1990-02-06          1.00
##  5 DGS10  1990-02-07          1.00
##  6 DGS10  1990-02-08          1.00
##  7 DGS10  1990-02-09          1.00
##  8 DGS10  1990-02-12          1.00
##  9 DGS10  1990-02-13          1.00
## 10 DGS10  1990-02-14          1.00
## # … with 8,002 more rows
…
riskfree_monthly_return <- riskfree_wide_cumulative %>%
  tq_transmute(select     = DGS10, 
               mutate_fun = periodReturn, 
               period     = "monthly",
               type       = "arithmetic",
               col_rename = "monthly.returns",
               cols = c(nested.col))

returns_wide_correlation <- returns_wide
returns_wide[is.na(returns_wide)] <- 0

returns_wide

## # A tibble: 11,205 x 9
##    date        FTSE250  FTSE100    SP500      VIX    DGS10     GOLD     LEND
##    <date>        <dbl>    <dbl>    <dbl>    <dbl>    <dbl>    <dbl>    <dbl>
##  1 1990-02-01  0.       0        0        0       -2.30e-4  0       -2.25e-4
##  2 1990-02-02  2.98e-3  0.00396  0.00648 -0.0221  -2.32e-4  0.00992 -2.28e-4
##  3 1990-02-03  0.       0        0        0       -2.33e-4  0       -2.28e-4
##  4 1990-02-04  0.       0        0        0       -2.33e-4  0       -2.28e-4
##  5 1990-02-05  1.93e-4 -0.00284  0.00281  0.00905 -2.33e-4  0.00335 -2.28e-4
##  6 1990-02-06 -6.99e-3 -0.0116  -0.00660  0.00611 -2.34e-4  0.00633 -2.28e-4
##  7 1990-02-07 -3.81e-3 -0.00590  0.0124  -0.0162  -2.33e-4 -0.00356 -2.28e-4
##  8 1990-02-08  4.21e-3  0.0102  -0.00237 -0.0214  -2.32e-4 -0.00333 -2.28e-4
##  9 1990-02-09 -4.62e-3 -0.00746  0.00198 -0.00337 -2.27e-4  0       -2.28e-4
## 10 1990-02-10  0.       0        0        0       -2.30e-4  0       -2.28e-4
## # … with 11,195 more rows, and 1 more variable: TBOND <dbl>
…
